…
``` r
url = "http://samhda.s3-us-gov-west-1.amazonaws.com/s3fs-public/field-uploads/2k15StateFiles/NSDUHsaeShortTermCHG2015.htm"

table_marj = 
  read_html(url) |> 
  html_table() |> 
  first() |>
  slice(-1)

table_marj
```

    ## # A tibble: 56 × 16
    ##    State     `12+(2013-2014)` `12+(2014-2015)` `12+(P Value)` `12-17(2013-2014)`
    ##    <chr>     <chr>            <chr>            <chr>          <chr>             
    ##  1 Total U.… 12.90a           13.36            0.002          13.28b            
    ##  2 Northeast 13.88a           14.66            0.005          13.98             
    ##  3 Midwest   12.40b           12.76            0.082          12.45             
    ##  4 South     11.24a           11.64            0.029          12.02             
    ##  5 West      15.27            15.62            0.262          15.53a            
    ##  6 Alabama   9.98             9.60             0.426          9.90              
    ##  7 Alaska    19.60a           21.92            0.010          17.30             
    ##  8 Arizona   13.69            13.12            0.364          15.12             
    ##  9 Arkansas  11.37            11.59            0.678          12.79             
    ## 10 Californ… 14.49            15.25            0.103          15.03             
    ## # ℹ 46 more rows
    ## # ℹ 11 more variables: `12-17(2014-2015)` <chr>, `12-17(P Value)` <chr>,
    ## #   `18-25(2013-2014)` <chr>, `18-25(2014-2015)` <chr>, `18-25(P Value)` <chr>,
    ## #   `26+(2013-2014)` <chr>, `26+(2014-2015)` <chr>, `26+(P Value)` <chr>,
    ## #   `18+(2013-2014)` <chr>, `18+(2014-2015)` <chr>, `18+(P Value)` <chr>

You can also remove columns. Here I am removing the P value column.

``` r
data_marj = 
  table_marj |>
  select(-contains("P Value")) 
data_marj
```

    ## # A tibble: 56 × 11
    ##    State `12+(2013-2014)` `12+(2014-2015)` `12-17(2013-2014)` `12-17(2014-2015)`
    ##    <chr> <chr>            <chr>            <chr>              <chr>             
    ##  1 Tota… 12.90a           13.36            13.28b             12.86             
    ##  2 Nort… 13.88a           14.66            13.98              13.51             
    ##  3 Midw… 12.40b           12.76            12.45              12.33             
    ##  4 South 11.24a           11.64            12.02              11.88             
    ##  5 West  15.27            15.62            15.53a             14.43             
    ##  6 Alab… 9.98             9.60             9.90               9.71              
    ##  7 Alas… 19.60a           21.92            17.30              18.44             
    ##  8 Ariz… 13.69            13.12            15.12              13.45             
    ##  9 Arka… 11.37            11.59            12.79              12.14             
    ## 10 Cali… 14.49            15.25            15.03              14.11             
    ## # ℹ 46 more rows
    ## # ℹ 6 more variables: `18-25(2013-2014)` <chr>, `18-25(2014-2015)` <chr>,
    ## #   `26+(2013-2014)` <chr>, `26+(2014-2015)` <chr>, `18+(2013-2014)` <chr>,
    ## #   `18+(2014-2015)` <chr>
…
``` r
data_marj = 
  table_marj |>
  select(-contains("P Value")) |>
  pivot_longer(
    -State,
    names_to = "age_year", 
    values_to = "percent")
data_marj
```

    ## # A tibble: 560 × 3
    ##    State      age_year         percent
    ##    <chr>      <chr>            <chr>  
    ##  1 Total U.S. 12+(2013-2014)   12.90a 
    ##  2 Total U.S. 12+(2014-2015)   13.36  
    ##  3 Total U.S. 12-17(2013-2014) 13.28b 
    ##  4 Total U.S. 12-17(2014-2015) 12.86  
    ##  5 Total U.S. 18-25(2013-2014) 31.78  
    ##  6 Total U.S. 18-25(2014-2015) 32.07  
    ##  7 Total U.S. 26+(2013-2014)   9.63a  
    ##  8 Total U.S. 26+(2014-2015)   10.25  
    ##  9 Total U.S. 18+(2013-2014)   12.87a 
    ## 10 Total U.S. 18+(2014-2015)   13.41  
    ## # ℹ 550 more rows
…
``` r
data_marj = 
  table_marj |>
  select(-contains("P Value")) |>
  pivot_longer(
    -State,
    names_to = "age_year", 
    values_to = "percent") |>
  separate(age_year, into = c("age", "year"), sep = "\\(")
data_marj
```

    ## # A tibble: 560 × 4
    ##    State      age   year       percent
    ##    <chr>      <chr> <chr>      <chr>  
    ##  1 Total U.S. 12+   2013-2014) 12.90a 
    ##  2 Total U.S. 12+   2014-2015) 13.36  
    ##  3 Total U.S. 12-17 2013-2014) 13.28b 
    ##  4 Total U.S. 12-17 2014-2015) 12.86  
    ##  5 Total U.S. 18-25 2013-2014) 31.78  
    ##  6 Total U.S. 18-25 2014-2015) 32.07  
    ##  7 Total U.S. 26+   2013-2014) 9.63a  
    ##  8 Total U.S. 26+   2014-2015) 10.25  
    ##  9 Total U.S. 18+   2013-2014) 12.87a 
    ## 10 Total U.S. 18+   2014-2015) 13.41  
    ## # ℹ 550 more rows
…
data_marj
```

    ## # A tibble: 560 × 4
    ##    State      age   year      percent
    ##    <chr>      <chr> <chr>     <chr>  
    ##  1 Total U.S. 12+   2013-2014 12.90a 
    ##  2 Total U.S. 12+   2014-2015 13.36  
    ##  3 Total U.S. 12-17 2013-2014 13.28b 
    ##  4 Total U.S. 12-17 2014-2015 12.86  
    ##  5 Total U.S. 18-25 2013-2014 31.78  
    ##  6 Total U.S. 18-25 2014-2015 32.07  
    ##  7 Total U.S. 26+   2013-2014 9.63a  
    ##  8 Total U.S. 26+   2014-2015 10.25  
    ##  9 Total U.S. 18+   2013-2014 12.87a 
    ## 10 Total U.S. 18+   2014-2015 13.41  
    ## # ℹ 550 more rows
…
  select(-contains("P Value")) |>
  pivot_longer(
    -State,
    names_to = "age_year", 
    values_to = "percent") |>
  separate(age_year, into = c("age", "year"), sep = "\\(") |>
  mutate(
    year = str_replace(year, "\\)", ""),
    percent = str_replace(percent, "[a-c]$", ""), 
    percent = as.numeric(c(percent))
  )
data_marj
```

    ## # A tibble: 560 × 4
    ##    State      age   year      percent
    ##    <chr>      <chr> <chr>       <dbl>
    ##  1 Total U.S. 12+   2013-2014   12.9 
    ##  2 Total U.S. 12+   2014-2015   13.4 
    ##  3 Total U.S. 12-17 2013-2014   13.3 
    ##  4 Total U.S. 12-17 2014-2015   12.9 
    ##  5 Total U.S. 18-25 2013-2014   31.8 
    ##  6 Total U.S. 18-25 2014-2015   32.1 
    ##  7 Total U.S. 26+   2013-2014    9.63
    ##  8 Total U.S. 26+   2014-2015   10.2 
    ##  9 Total U.S. 18+   2013-2014   12.9 
    ## 10 Total U.S. 18+   2014-2015   13.4 
    ## # ℹ 550 more rows
…
data_marj
```

    ## # A tibble: 510 × 4
    ##    State   age   year      percent
    ##    <chr>   <chr> <chr>       <dbl>
    ##  1 Alabama 12+   2013-2014    9.98
    ##  2 Alabama 12+   2014-2015    9.6 
    ##  3 Alabama 12-17 2013-2014    9.9 
    ##  4 Alabama 12-17 2014-2015    9.71
    ##  5 Alabama 18-25 2013-2014   27.0 
    ##  6 Alabama 18-25 2014-2015   26.1 
    ##  7 Alabama 26+   2013-2014    7.1 
    ##  8 Alabama 26+   2014-2015    6.81
    ##  9 Alabama 18+   2013-2014    9.99
    ## 10 Alabama 18+   2014-2015    9.59
    ## # ℹ 500 more rows

You can also use the filter function to INCLUDE only certain
information.

``` r
data_marj =
  data_marj %>% 
  filter(age == "12-17") 
data_marj
```

    ## # A tibble: 102 × 4
    ##    State      age   year      percent
    ##    <chr>      <chr> <chr>       <dbl>
    ##  1 Alabama    12-17 2013-2014    9.9 
    ##  2 Alabama    12-17 2014-2015    9.71
    ##  3 Alaska     12-17 2013-2014   17.3 
    ##  4 Alaska     12-17 2014-2015   18.4 
    ##  5 Arizona    12-17 2013-2014   15.1 
    ##  6 Arizona    12-17 2014-2015   13.4 
    ##  7 Arkansas   12-17 2013-2014   12.8 
    ##  8 Arkansas   12-17 2014-2015   12.1 
    ##  9 California 12-17 2013-2014   15.0 
    ## 10 California 12-17 2014-2015   14.1 
    ## # ℹ 92 more rows
…
